imdb_data • tmdbdata
…
Most Episodes

tv_episodes %>%
  group_by(tconst_series, series_name) %>% 
  summarize(seasons = length(unique(seasonNumber)),
            episodes = n(),
            start = min(episode_year, na.rm = T),
            last = max(episode_year, na.rm = T)) %>% 
  arrange(desc(episodes)) %>% 
  ungroup() %>% 
  head(80)
#> # A tibble: 80 × 6
#>    tconst_series series_name                        seasons episodes start  last
#>    <chr>         <chr>                                <int>    <int> <dbl> <dbl>
#>  1 tt0115147     The Daily Show                          30     3900  1996  2025
#>  2 tt0084987     The Bill                                26     2403  1984  2010
#>  3 tt3444938     The Tonight Show Starring Jimmy F…      12     2097  2014  2025
#>  4 tt0185103     WWE Raw                                 33     1668  1993  2025
#>  5 tt3697842     The Late Show with Stephen Colbert      10     1655  2015  2025
#>  6 tt0458254     The Colbert Report                      12     1357  2005  2014
#>  7 tt0227972     WWE Smackdown!                          27     1342  1999  2025
#>  8 tt1820166     Ridiculousness                          42     1309  2011  2024
#>  9 tt0806910     Tatort                                   1     1302  1970  2025
#> 10 tt0168366     Pokémon                                 26     1234  1997  2023
#> # ℹ 70 more rows
…
